examples/pm.vcd
$date
	Mon Apr 11 18:53:43 2022
$end
$version
	Icarus Verilog
$end
$timescale
	1s
$end
$scope module test $end
$var wire 32 ! PC [31:0] $end
$var reg 1 " clk $end
$var reg 1 # done $end
$var reg 1 $ reset $end
$var integer 32 % i [31:0] $end
$scope module pm $end
$var wire 1 & DEMW_reset $end
$var wire 1 ' PCSrc $end
$var wire 1 " clk $end
$var wire 1 ( flushing $end
$var wire 1 $ reset $end
$var wire 1 ) zero $end
$var wire 5 * wr_regnum_MW [4:0] $end
$var wire 5 + wr_regnum_DE [4:0] $end
$var wire 32 , wr_data [31:0] $end
$var wire 1 - stall $end
$var wire 5 . rt [4:0] $end
$var wire 5 / rs [4:0] $end
$var wire 32 0 rd2_data_MW [31:0] $end
$var wire 32 1 rd2_data_DE [31:0] $end
$var wire 32 2 rd1_data [31:0] $end
$var wire 5 3 rd [4:0] $end
$var wire 6 4 opcode [5:0] $end
$var wire 30 5 next_PC [31:2] $end
$var wire 32 6 load_data [31:0] $end
$var wire 32 7 inst_IF [31:0] $end
$var wire 32 8 inst_DE [31:0] $end
$var wire 32 9 imm [31:0] $end
$var wire 6 : funct [5:0] $end
$var wire 32 ; b_forwarded [31:0] $end
$var wire 32 < alu_out_data_MW [31:0] $end
$var wire 32 = alu_out_data_DE [31:0] $end
$var wire 32 > a_forwarded [31:0] $end
$var wire 1 ? RegWrite_MW $end
$var wire 1 @ RegWrite_DE $end
$var wire 1 A RegDst $end
$var wire 30 B PC_target [31:2] $end
$var wire 30 C PC_plus4_IF [31:2] $end
$var wire 30 D PC_plus4_DE [31:2] $end
$var wire 32 E PC [31:0] $end
$var wire 1 F MemWrite_MW $end
$var wire 1 G MemWrite_DE $end
$var wire 1 H MemToReg_MW $end
$var wire 1 I MemToReg_DE $end
$var wire 1 J MemRead_MW $end
$var wire 1 K MemRead_DE $end
$var wire 1 L ForwardB $end
$var wire 1 M ForwardA $end
$var wire 32 N B_data [31:0] $end
$var wire 1 O BEQ $end
$var wire 1 P ALUSrc $end
$var wire 3 Q ALUOp [2:0] $end
$scope module AForward $end
$var wire 32 R out [31:0] $end
$var wire 32 S temp1 [31:0] $end
$var wire 32 T temp2 [31:0] $end
$var wire 1 M sel $end
$var wire 32 U B [31:0] $end
$var wire 32 V A [31:0] $end
$upscope $end
$scope module BForward $end
$var wire 32 W out [31:0] $end
$var wire 32 X temp1 [31:0] $end
$var wire 32 Y temp2 [31:0] $end
$var wire 1 L sel $end
$var wire 32 Z B [31:0] $end
$var wire 32 [ A [31:0] $end
$upscope $end
$scope module MemRead_DEMW $end
$var wire 1 " clk $end
$var wire 1 \ enable $end
$var wire 1 & reset $end
$var wire 1 K d $end
$var reg 1 J q $end
$upscope $end
$scope module MemToReg_DEMW $end
$var wire 1 " clk $end
$var wire 1 ] enable $end
$var wire 1 & reset $end
$var wire 1 I d $end
$var reg 1 H q $end
$upscope $end
$scope module MemWrite_DEMW $end
$var wire 1 " clk $end
$var wire 1 ^ enable $end
$var wire 1 & reset $end
$var wire 1 G d $end
$var reg 1 F q $end
$upscope $end
$scope module PC_plus4_IFDE $end
$var wire 1 " clk $end
$var wire 1 _ enable $end
$var wire 1 $ reset $end
$var wire 30 ` d [29:0] $end
$var reg 30 a q [29:0] $end
$upscope $end
$scope module PC_reg $end
$var wire 1 " clk $end
$var wire 1 b enable $end
$var wire 1 $ reset $end
$var wire 30 c d [29:0] $end
$var reg 30 d q [29:0] $end
$upscope $end
$scope module RegWrite_DEMW $end
$var wire 1 " clk $end
$var wire 1 e enable $end
$var wire 1 & reset $end
$var wire 1 @ d $end
$var reg 1 ? q $end
$upscope $end
$scope module alu $end
$var wire 32 f inA [31:0] $end
$var wire 32 g out [31:0] $end
$var wire 1 ) zero $end
$var wire 32 h inB [31:0] $end
$var wire 3 i control [2:0] $end
$upscope $end
$scope module alu_out_data_DEMW $end
$var wire 1 " clk $end
$var wire 32 j d [31:0] $end
$var wire 1 k enable $end
$var wire 1 & reset $end
$var reg 32 l q [31:0] $end
$upscope $end
$scope module branch_mux $end
$var wire 30 m out [29:0] $end
$var wire 1 ' sel $end
$var wire 30 n temp1 [29:0] $end
$var wire 30 o temp2 [29:0] $end
$var wire 30 p B [29:0] $end
$var wire 30 q A [29:0] $end
$upscope $end
$scope module data_memory $end
$var wire 32 r addr [31:0] $end
$var wire 1 " clk $end
$var wire 32 s d_out [31:0] $end
$var wire 32 t data_out [31:0] $end
$var wire 32 u internal_data_in [31:0] $end
$var wire 1 J mem_read $end
$var wire 1 F mem_write $end
$var wire 1 $ reset $end
$var wire 1 v valid_address $end
$var wire 19 w index [18:0] $end
$var wire 32 x data_in [31:0] $end
$var integer 32 y i [31:0] $end
$upscope $end
$scope module decode $end
$var wire 1 P ALUSrc $end
$var wire 1 I MemToReg $end
$var wire 1 A RegDst $end
$var wire 1 @ RegWrite $end
$var wire 6 z funct [5:0] $end
$var wire 1 { nop $end
$var wire 6 | opcode [5:0] $end
$var wire 1 } op0 $end
$var wire 1 G MemWrite $end
$var wire 1 K MemRead $end
$var wire 1 O BEQ $end
$var wire 3 ~ ALUOp [2:0] $end
$upscope $end
$scope module forward $end
$var wire 1 M ForwardA $end
$var wire 1 L ForwardB $end
$var wire 1 ? RegWrite_MW $end
$var wire 5 !" Rs [4:0] $end
$var wire 5 "" Rt [4:0] $end
$var wire 5 #" wr_regnum_MW [4:0] $end
$upscope $end
$scope module hazard $end
$var wire 1 K MemRead_DE $end
$var wire 1 J MemRead_MW $end
$var wire 5 $" Rs [4:0] $end
$var wire 5 %" Rt [4:0] $end
$var wire 1 - Stall $end
$var wire 5 &" wr_regnum_MW [4:0] $end
$upscope $end
$scope module imem $end
$var wire 30 '" addr [29:0] $end
$var wire 32 (" data [31:0] $end
$var reg 32 )" i [31:0] $end
$upscope $end
$scope module imm_mux $end
$var wire 32 *" A [31:0] $end
$var wire 32 +" B [31:0] $end
$var wire 32 ," out [31:0] $end
$var wire 1 P sel $end
$var wire 32 -" temp1 [31:0] $end
$var wire 32 ." temp2 [31:0] $end
$upscope $end
$scope module inst_IFDE $end
$var wire 1 " clk $end
$var wire 32 /" d [31:0] $end
$var wire 1 0" enable $end
$var wire 1 ( reset $end
$var reg 32 1" q [31:0] $end
$upscope $end
$scope module next_PC_adder $end
$var wire 30 2" in1 [29:0] $end
$var wire 30 3" in2 [29:0] $end
$var wire 30 4" out [29:0] $end
$upscope $end
$scope module rd2_data_DEMW $end
$var wire 1 " clk $end
$var wire 32 5" d [31:0] $end
$var wire 1 6" enable $end
$var wire 1 & reset $end
$var reg 32 7" q [31:0] $end
$upscope $end
$scope module rd_mux $end
$var wire 5 8" A [4:0] $end
$var wire 5 9" B [4:0] $end
$var wire 5 :" out [4:0] $end
$var wire 1 A sel $end
$var wire 5 ;" temp1 [4:0] $end
$var wire 5 <" temp2 [4:0] $end
$upscope $end
$scope module rf $end
$var wire 1 " clock $end
$var wire 32 =" internal_rdData [31:0] $end
$var wire 1 ? rdWriteEnable $end
$var wire 1 $ reset $end
$var wire 32 >" rsData [31:0] $end
$var wire 5 ?" rsNum [4:0] $end
$var wire 32 @" rtData [31:0] $end
$var wire 5 A" rtNum [4:0] $end
$var wire 5 B" rdNum [4:0] $end
$var wire 32 C" rdData [31:0] $end
$var integer 32 D" i [31:0] $end
$upscope $end
$scope module target_PC_adder $end
$var wire 30 E" in1 [29:0] $end
$var wire 30 F" in2 [29:0] $end
$var wire 30 G" out [29:0] $end
$upscope $end
$scope module wb_mux $end
$var wire 32 H" A [31:0] $end
$var wire 32 I" B [31:0] $end
$var wire 32 J" out [31:0] $end
$var wire 1 H sel $end
$var wire 32 K" temp1 [31:0] $end
$var wire 32 L" temp2 [31:0] $end
$upscope $end
$scope module wr_regnum_DEMW $end
$var wire 1 " clk $end
$var wire 5 M" d [4:0] $end
$var wire 1 N" enable $end
$var wire 1 & reset $end
$var reg 5 O" q [4:0] $end
$upscope $end
$upscope $end
$upscope $end
$scope module test $end
$scope module pm $end
$scope module rf $end
$var reg 32 P" \r[0] [31:0] $end
$upscope $end
$upscope $end
$upscope $end
$scope module test $end
$scope module pm $end
$scope module rf $end
$var reg 32 Q" \r[1] [31:0] $end
$upscope $end
$upscope $end
$upscope $end
$scope module test $end
$scope module pm $end
$scope module rf $end
$var reg 32 R" \r[2] [31:0] $end
$upscope $end
$upscope $end
$upscope $end
$scope module test $end
$scope module pm $end
$scope module rf $end
$var reg 32 S" \r[3] [31:0] $end
$upscope $end
$upscope $end
$upscope $end
$scope module test $end
$scope module pm $end
$scope module rf $end
$var reg 32 T" \r[4] [31:0] $end
$upscope $end
$upscope $end
$upscope $end
$scope module test $end
$scope module pm $end
$scope module rf $end
$var reg 32 U" \r[5] [31:0] $end
$upscope $end
$upscope $end
$upscope $end
$scope module test $end
$scope module pm $end
$scope module rf $end
$var reg 32 V" \r[6] [31:0] $end
$upscope $end
$upscope $end
$upscope $end
$scope module test $end
$scope module pm $end
$scope module rf $end
$var reg 32 W" \r[7] [31:0] $end
$upscope $end
$upscope $end
$upscope $end
$scope module test $end
$scope module pm $end
$scope module rf $end
$var reg 32 X" \r[8] [31:0] $end
$upscope $end
$upscope $end
$upscope $end
$scope module test $end
$scope module pm $end
$scope module rf $end
$var reg 32 Y" \r[9] [31:0] $end
$upscope $end
$upscope $end
$upscope $end
$scope module test $end
$scope module pm $end
$scope module rf $end
$var reg 32 Z" \r[10] [31:0] $end
$upscope $end
$upscope $end
$upscope $end
$scope module test $end
$scope module pm $end
$scope module rf $end
$var reg 32 [" \r[11] [31:0] $end
$upscope $end
$upscope $end
$upscope $end
$scope module test $end
$scope module pm $end
$scope module rf $end
$var reg 32 \" \r[12] [31:0] $end
$upscope $end
$upscope $end
$upscope $end
$scope module test $end
$scope module pm $end
$scope module rf $end
$var reg 32 ]" \r[13] [31:0] $end
$upscope $end
$upscope $end
$upscope $end
$scope module test $end
$scope module pm $end
$scope module rf $end
$var reg 32 ^" \r[14] [31:0] $end
$upscope $end
$upscope $end
$upscope $end
$scope module test $end
$scope module pm $end
$scope module rf $end
$var reg 32 _" \r[15] [31:0] $end
$upscope $end
$upscope $end
$upscope $end
$scope module test $end
$scope module pm $end
$scope module rf $end
$var reg 32 `" \r[16] [31:0] $end
$upscope $end
$upscope $end
$upscope $end
$scope module test $end
$scope module pm $end
$scope module rf $end
$var reg 32 a" \r[17] [31:0] $end
$upscope $end
$upscope $end
$upscope $end
$scope module test $end
$scope module pm $end
$scope module rf $end
$var reg 32 b" \r[18] [31:0] $end
$upscope $end
$upscope $end
$upscope $end
$scope module test $end
$scope module pm $end
$scope module rf $end
$var reg 32 c" \r[19] [31:0] $end
$upscope $end
$upscope $end
$upscope $end
$scope module test $end
$scope module pm $end
$scope module rf $end
$var reg 32 d" \r[20] [31:0] $end
$upscope $end
$upscope $end
$upscope $end
$scope module test $end
$scope module pm $end
$scope module rf $end
$var reg 32 e" \r[21] [31:0] $end
$upscope $end
$upscope $end
$upscope $end
$scope module test $end
$scope module pm $end
$scope module rf $end
$var reg 32 f" \r[22] [31:0] $end
$upscope $end
$upscope $end
$upscope $end
$scope module test $end
$scope module pm $end
$scope module rf $end
$var reg 32 g" \r[23] [31:0] $end
$upscope $end
$upscope $end
$upscope $end
$scope module test $end
$scope module pm $end
$scope module rf $end
$var reg 32 h" \r[24] [31:0] $end
$upscope $end
$upscope $end
$upscope $end
$scope module test $end
$scope module pm $end
$scope module rf $end
$var reg 32 i" \r[25] [31:0] $end
$upscope $end
$upscope $end
$upscope $end
$scope module test $end
$scope module pm $end
$scope module rf $end
$var reg 32 j" \r[26] [31:0] $end
$upscope $end
$upscope $end
$upscope $end
$scope module test $end
$scope module pm $end
$scope module rf $end
$var reg 32 k" \r[27] [31:0] $end
$upscope $end
$upscope $end
$upscope $end
$scope module test $end
$scope module pm $end
$scope module rf $end
$var reg 32 l" \r[28] [31:0] $end
$upscope $end
$upscope $end
$upscope $end
$scope module test $end
$scope module pm $end
$scope module rf $end
$var reg 32 m" \r[29] [31:0] $end
$upscope $end
$upscope $end
$upscope $end
$scope module test $end
$scope module pm $end
$scope module rf $end
$var reg 32 n" \r[30] [31:0] $end
$upscope $end
$upscope $end
$upscope $end
$scope module test $end
$scope module pm $end
$scope module rf $end
$var reg 32 o" \r[31] [31:0] $end
$upscope $end
$upscope $end
$upscope $end
$enddefinitions $end
#0
$dumpvars
b10000000000010000000000000000 o"
b10000000000010000000000000000 n"
b10000000000010000000000000000 m"
b10000000000010000000000000000 l"
b10000000000010000000000000000 k"
b10000000000010000000000000000 j"
b10000000000010000000000000000 i"
b10000000000010000000000000000 h"
b10000000000010000000000000000 g"
b10000000000010000000000000000 f"
b10000000000010000000000000000 e"
b10000000000010000000000000000 d"
b10000000000010000000000000000 c"
b10000000000010000000000000000 b"
b10000000000010000000000000000 a"
b10000000000010000000000000000 `"
b10000000000010000000000000000 _"
b10000000000010000000000000000 ^"
b10000000000010000000000000000 ]"
b10000000000010000000000000000 \"
b10000000000010000000000000000 ["
b10000000000010000000000000000 Z"
b10000000000010000000000000000 Y"
b10000000000010000000000000000 X"
b10000000000010000000000000000 W"
b10000000000010000000000000000 V"
b10000000000010000000000000000 U"
b10000000000010000000000000000 T"
b10000000000010000000000000000 S"
b10000000000010000000000000000 R"
b10000000000010000000000000000 Q"
b0 P"
bx O"
1N"
bx M"
bx L"
bx K"
bx J"
bx I"
bx H"
bx G"
bx F"
bx E"
b100000 D"
bx C"
bx B"
bx A"
bx @"
bx ?"
bx >"
bx ="
bx <"
bx ;"
bx :"
bx 9"
bx 8"
bx 7"
16"
bx 5"
bx 4"
b1 3"
bx 2"
bx 1"
x0"
bx /"
bx ."
bx -"
bx ,"
bx +"
bx *"
b100000000 )"
bx ("
bx '"
bx &"
bx %"
bx $"
bx #"
bx ""
bx !"
bx ~
x}
bx |
x{
bx z
b1000000000000000000 y
bx x
bx w
xv
bx u
bx t
bx s
bx r
bx q
bx p
bx o
bx n
bx m
bx l
1k
bx j
bx i
bx h
bx g
bx f
1e
bx d
bx c
xb
bx a
bx `
x_
1^
1]
1\
bx [
bx Z
bx Y
bx X
bx W
bx V
bx U
bx T
bx S
bx R
bx Q
xP
xO
bx N
xM
xL
xK
xJ
xI
xH
xG
xF
bx00 E
bx D
bx C
bx B
xA
x@
x?
bx >
bx =
bx <
bx ;
bx :
bx 9
bx 8
bx 7
bx 6
bx 5
bx 4
bx 3
bx 2
bx 1
bx 0
bx /
bx .
x-
bx ,
bx +
bx *
x)
1(
x'
1&
b100000 %
1$
0#
0"
bx00 !
$end
#6
b0 +
b0 :"
b0 M"
10"
1_
1b
b0 <"
b0 ;"
b0 F"
b0 ."
b11011110101011011011111011101111 s
b0 w
0-
b0 ,
b0 C"
b0 J"
0M
0L
b100000000000000000000 2"
b100000000000000000000 '"
b0 :
b0 z
1}
b0 4
b0 |
b0 3
b0 9"
b0 .
b0 ""
b0 %"
b0 8"
b0 A"
b0 /
b0 !"
b0 $"
b0 ?"
b0 9
b0 +"
0v
b0 Y
b0 T
b0 K"
b0 L"
b10000000000000000000000 E
b10000000000000000000000 !
b100000000000000000000 d
b0 D
b0 a
b0 E"
b0 8
b0 1"
b0 0
b0 x
b0 7"
b0 <
b0 U
b0 Z
b0 l
b0 r
b0 H"
b0 *
b0 #"
b0 &"
b0 B"
b0 O"
0H
0J
0F
0?
1"
#7
b0 N
b0 h
b0 ,"
b0 -"
b0 ;
b0 W
b0 *"
b0 5"
b0 >
b0 R
b0 f
b0 X
b0 S
x(
0&
b0 ="
b0 1
b0 [
b0 @"
b0 2
b0 V
b0 >"
0$
#8
0@
b100000000000000000001 5
b100000000000000000001 c
b100000000000000000001 m
0(
b0 o
b100000000000000000001 n
0'
1A
0P
1)
b0 Q
b0 i
b0 ~
1{
b0 B
b0 p
b0 G"
b100000000000000000001 C
b100000000000000000001 `
b100000000000000000001 q
b100000000000000000001 4"
0O
0I
0K
0G
#9
b0 =
b0 g
b0 j
b10001110100000100000000000000000 7
b10001110100000100000000000000000 ("
b10001110100000100000000000000000 /"
b0 6
b0 t
b0 I"
b0 u
#12
0"
#18
0}
b100011 4
b100011 |
b10 .
b10 ""
b10 %"
b10 8"
b10 A"
b10100 /
b10100 !"
b10100 $"
b10100 ?"
b100000000000000000001 2"
b100000000000000000001 '"
b10001110100000100000000000000000 8
b10001110100000100000000000000000 1"
b100000000000000000001 D
b100000000000000000001 a
b100000000000000000001 E"
b10000000000000000000100 E
b10000000000000000000100 !
b100000000000000000001 d
1"
#19
b10000000000010000000000000000 N
b10000000000010000000000000000 h
b10000000000010000000000000000 ,"
b10000000000010000000000000000 -"
b10000000000010000000000000000 ;
b10000000000010000000000000000 W
b10000000000010000000000000000 *"
b10000000000010000000000000000 5"
b10000000000010000000000000000 >
b10000000000010000000000000000 R
b10000000000010000000000000000 f
b10000000000010000000000000000 X
b10000000000010000000000000000 S
b10000000000010000000000000000 1
b10000000000010000000000000000 [
b10000000000010000000000000000 @"
b10000000000010000000000000000 2
b10000000000010000000000000000 V
b10000000000010000000000000000 >"
#20
b10 +
b10 :"
b10 M"
b0 N
b0 h
b0 ,"
1@
b10 ;"
b0 -"
b100000000000000000010 5
b100000000000000000010 c
b100000000000000000010 m
0A
1P
b100000000000000000010 n
0{
1I
1K
b100000000000000000010 C
b100000000000000000010 `
b100000000000000000010 q
b100000000000000000010 4"
b100000000000000000001 B
b100000000000000000001 p
b100000000000000000001 G"
#21
0)
b10001110100000110000000000000100 7
b10001110100000110000000000000100 ("
b10001110100000110000000000000100 /"
#22
b10000000000010000000000000000 =
b10000000000010000000000000000 g
b10000000000010000000000000000 j
#24
0"
#30
b11 +
b11 :"
b11 M"
b100 N
b100 h
b100 ,"
b0 Y
b10000000000010000000000000000 X
b11 ;"
b100 F"
b100 ."
b1 s
b100000000000000 w
0L
b100000000000000000010 2"
b100000000000000000010 '"
b100 :
b100 z
b11 .
b11 ""
b11 %"
b11 8"
b11 A"
b100 9
b100 +"
1v
b10000000000000000001000 E
b10000000000000000001000 !
b100000000000000000010 d
b100000000000000000010 D
b100000000000000000010 a
b100000000000000000010 E"
b10001110100000110000000000000100 8
b10001110100000110000000000000100 1"
b10000000000010000000000000000 0
b10000000000010000000000000000 x
b10000000000010000000000000000 7"
b10000000000010000000000000000 <
b10000000000010000000000000000 U
b10000000000010000000000000000 Z
b10000000000010000000000000000 l
b10000000000010000000000000000 r
b10000000000010000000000000000 H"
b10 *
b10 #"
b10 &"
b10 B"
b10 O"
1H
1J
1?
1"
#32
b100000000000000000011 5
b100000000000000000011 c
b100000000000000000011 m
b100000000000000000011 n
b10000000000010000000000000100 =
b10000000000010000000000000100 g
b10000000000010000000000000100 j
b100000000000000000011 C
b100000000000000000011 `
b100000000000000000011 q
b100000000000000000011 4"
b100000000000000000110 B
b100000000000000000110 p
b100000000000000000110 G"
#33
b1 ,
b1 C"
b1 J"
b1 L"
b10001110100001000000000000001000 7
b10001110100001000000000000001000 ("
b10001110100001000000000000001000 /"
b1 6
b1 t
b1 I"
b10000000000010000000000000000 u
#34
b1 ="
#36
0"
#42
b100 +
b100 :"
b100 M"
b1000 N
b1000 h
b1000 ,"
b11111111 s
b100000000000001 w
b100 ;"
b1000 F"
b1000 ."
b1000 :
b1000 z
b100 .
b100 ""
b100 %"
b100 8"
b100 A"
b1000 9
b1000 +"
b100000000000000000011 2"
b100000000000000000011 '"
b11 *
b11 #"
b11 &"
b11 B"
b11 O"
b10000000000010000000000000100 <
b10000000000010000000000000100 U
b10000000000010000000000000100 Z
b10000000000010000000000000100 l
b10000000000010000000000000100 r
b10000000000010000000000000100 H"
b1 R"
b10001110100001000000000000001000 8
b10001110100001000000000000001000 1"
b100000000000000000011 D
b100000000000000000011 a
b100000000000000000011 E"
b10000000000000000001100 E
b10000000000000000001100 !
b100000000000000000011 d
1"
#44
b100000000000000000100 5
b100000000000000000100 c
b100000000000000000100 m
b100000000000000000100 n
b10000000000010000000000001000 =
b10000000000010000000000001000 g
b10000000000010000000000001000 j
b100000000000000000100 C
b100000000000000000100 `
b100000000000000000100 q
b100000000000000000100 4"
b100000000000000001011 B
b100000000000000001011 p
b100000000000000001011 G"
#45
b11111111 ,
b11111111 C"
b11111111 J"
b11111111 L"
b11111111 6
b11111111 t
b11111111 I"
b10001110100001010000000000001100 7
b10001110100001010000000000001100 ("
b10001110100001010000000000001100 /"
#46
b11111111 ="
#48
0"
#54
b10000000000010000000000000000 ;
b10000000000010000000000000000 W
b10000000000010000000000000000 *"
b10000000000010000000000000000 5"
b101 +
b101 :"
b101 M"
b1100 N
b1100 h
b1100 ,"
b0 Y
b10000000000010000000000000000 X
b101 ;"
b1100 F"
b1100 ."
b10000000000 s
b100000000000010 w
0L
b100000000000000000100 2"
b100000000000000000100 '"
b1100 :
b1100 z
b101 .
b101 ""
b101 %"
b101 8"
b101 A"
b1100 9
b1100 +"
b10000000000000000010000 E
b10000000000000000010000 !
b100000000000000000100 d
b100000000000000000100 D
b100000000000000000100 a
b100000000000000000100 E"
b10001110100001010000000000001100 8
b10001110100001010000000000001100 1"
b11111111 S"
b10000000000010000000000001000 <
b10000000000010000000000001000 U
b10000000000010000000000001000 Z
b10000000000010000000000001000 l
b10000000000010000000000001000 r
b10000000000010000000000001000 H"
b100 *
b100 #"
b100 &"
b100 B"
b100 O"
1"
#56
b100000000000000000101 5
b100000000000000000101 c
b100000000000000000101 m
b100000000000000000101 n
b10000000000010000000000001100 =
b10000000000010000000000001100 g
b10000000000010000000000001100 j
b100000000000000000101 C
b100000000000000000101 `
b100000000000000000101 q
b100000000000000000101 4"
b100000000000000010000 B
b100000000000000010000 p
b100000000000000010000 G"
#57
b10000000000 ,
b10000000000 C"
b10000000000 J"
b10000000000 L"
b10000000000 6
b10000000000 t
b10000000000 I"
b10001110100001100000000000010000 7
b10001110100001100000000000010000 ("
b10001110100001100000000000010000 /"
#58
b10000000000 ="
#60
0"
#66
b110 +
b110 :"
b110 M"
b10000 N
b10000 h
b10000 ,"
b1100100 s
b100000000000011 w
b110 ;"
b10000 F"
b10000 ."
b10000 :
b10000 z
b110 .
b110 ""
b110 %"
b110 8"
b110 A"
b10000 9
b10000 +"
b100000000000000000101 2"
b100000000000000000101 '"
b101 *
b101 #"
b101 &"
b101 B"
b101 O"
b10000000000010000000000001100 <
b10000000000010000000000001100 U
b10000000000010000000000001100 Z
b10000000000010000000000001100 l
b10000000000010000000000001100 r
b10000000000010000000000001100 H"
b10000000000 T"
b10001110100001100000000000010000 8
b10001110100001100000000000010000 1"
b100000000000000000101 D
b100000000000000000101 a
b100000000000000000101 E"
b10000000000000000010100 E
b10000000000000000010100 !
b100000000000000000101 d
1"
#68
b100000000000000000110 5
b100000000000000000110 c
b100000000000000000110 m
b100000000000000000110 n
b10000000000010000000000010000 =
b10000000000010000000000010000 g
b10000000000010000000000010000 j
b100000000000000000110 C
b100000000000000000110 `
b100000000000000000110 q
b100000000000000000110 4"
b100000000000000010101 B
b100000000000000010101 p
b100000000000000010101 G"
#69
b1100100 ,
b1100100 C"
b1100100 J"
b1100100 L"
b1100100 6
b1100100 t
b1100100 I"
b10000100011100000100000 7
b10000100011100000100000 ("
b10000100011100000100000 /"
#70
b1100100 ="
#72
0"
#78
b10000000000010000000000000000 ;
b10000000000010000000000000000 W
b10000000000010000000000000000 *"
b10000000000010000000000000000 5"
b10 +
b10 :"
b10 M"
b11100000100000 N
b11100000100000 h
b11100000100000 ,"
b0 Y
b10000000000010000000000000000 X
b10 ;"
b11100000100000 F"
b11100000100000 ."
b11001000 s
b100000000000100 w
0L
b100000000000000000110 2"
b100000000000000000110 '"
b100000 :
b100000 z
1}
b0 4
b0 |
b111 3
b111 9"
b10 .
b10 ""
b10 %"
b10 8"
b10 A"
b10 /
b10 !"
b10 $"
b10 ?"
b11100000100000 9
b11100000100000 +"
b10000000000000000011000 E
b10000000000000000011000 !
b100000000000000000110 d
b100000000000000000110 D
b100000000000000000110 a
b100000000000000000110 E"
b10000100011100000100000 8
b10000100011100000100000 1"
b1100100 U"
b10000000000010000000000010000 <
b10000000000010000000000010000 U
b10000000000010000000000010000 Z
b10000000000010000000000010000 l
b10000000000010000000000010000 r
b10000000000010000000000010000 H"
b110 *
b110 #"
b110 &"
b110 B"
b110 O"
1"
#79
b1 ;
b1 W
b1 *"
b1 5"
b1 >
b1 R
b1 f
b1 X
b1 S
b1 1
b1 [
b1 @"
b1 2
b1 V
b1 >"
#80
b111 +
b111 :"
b111 M"
b1 N
b1 h
b1 ,"
b100000000000000000111 5
b100000000000000000111 c
b100000000000000000111 m
b0 ;"
b111 <"
b1 -"
b0 ."
b100000000000000000111 n
1A
0P
b100000000000000000111 C
b100000000000000000111 `
b100000000000000000111 q
b100000000000000000111 4"
0I
0K
b100000011100000100110 B
b100000011100000100110 p
b100000011100000100110 G"
#81
b11001000 ,
b11001000 C"
b11001000 J"
b11001000 L"
1)
b11001000 6
b11001000 t
b11001000 I"
b100000110100000000100000 7
b100000110100000000100000 ("
b100000110100000000100000 /"
#82
b11001000 ="
b10 =
b10 g
b10 j
#84
0"
#90
b1000 +
b1000 :"
b1000 M"
b11011110101011011011111011101111 s
b0 w
b10 ,
b10 C"
b10 J"
b1000 <"
b100000000100000 F"
b0 L"
0v
b10 K"
b1000 3
b1000 9"
b11 .
b11 ""
b11 %"
b11 8"
b11 A"
b100 /
b100 !"
b100 $"
b100 ?"
b100000000100000 9
b100000000100000 +"
b100000000000000000111 2"
b100000000000000000111 '"
0J
0H
b111 *
b111 #"
b111 &"
b111 B"
b111 O"
b10 <
b10 U
b10 Z
b10 l
b10 r
b10 H"
b1 0
b1 x
b1 7"
b11001000 V"
b100000110100000000100000 8
b100000110100000000100000 1"
b100000000000000000111 D
b100000000000000000111 a
b100000000000000000111 E"
b10000000000000000011100 E
b10000000000000000011100 !
b100000000000000000111 d
1"
#91
b11111111 N
b11111111 h
b11111111 ,"
b11111111 -"
b11111111 ;
b11111111 W
b11111111 *"
b11111111 5"
b10000000000 >
b10000000000 R
b10000000000 f
b11111111 X
b10000000000 S
b10 ="
b11111111 1
b11111111 [
b11111111 @"
b10000000000 2
b10000000000 V
b10000000000 >"
#92
b100000000000000001000 5
b100000000000000001000 c
b100000000000000001000 m
b100000000000000001000 n
0)
b100000000000000001000 C
b100000000000000001000 `
b100000000000000001000 q
b100000000000000001000 4"
b100000100000000100111 B
b100000100000000100111 p
b100000100000000100111 G"
#93
b10011111111 =
b10011111111 g
b10011111111 j
b101000000100100000100010 7
b101000000100100000100010 ("
b101000000100100000100010 /"
b0 6
b0 t
b0 I"
b1 u
#96
0"
#102
b1001 +
b1001 :"
b1001 M"
b1001 <"
b100100000100010 F"
b100111111 w
b10011111111 ,
b10011111111 C"
b10011111111 J"
b100000000000000001000 2"
b100000000000000001000 '"
b100010 :
b100010 z
b1001 3
b1001 9"
b0 .
b0 ""
b0 %"
b0 8"
b0 A"
b101 /
b101 !"
b101 $"
b101 ?"
b100100000100010 9
b100100000100010 +"
b10011111111 K"
b10000000000000000100000 E
b10000000000000000100000 !
b100000000000000001000 d
b100000000000000001000 D
b100000000000000001000 a
b100000000000000001000 E"
b101000000100100000100010 8
b101000000100100000100010 1"
b10 W"
b11111111 0
b11111111 x
b11111111 7"
b10011111111 <
b10011111111 U
b10011111111 Z
b10011111111 l
b10011111111 r
b10011111111 H"
b1000 *
b1000 #"
b1000 &"
b1000 B"
b1000 O"
1"
#103
b0 N
b0 h
b0 ,"
b0 -"
b0 ;
b0 W
b0 *"
b0 5"
b1100100 >
b1100100 R
b1100100 f
b0 X
b1100100 S
b10011111111 ="
b0 1
b0 [
b0 @"
b1100100 2
b1100100 V
b1100100 >"
#104
b100000000000000001001 5
b100000000000000001001 c
b100000000000000001001 m
b100000000000000001001 n
b1 Q
b1 i
b1 ~
b100000000000000001001 C
b100000000000000001001 `
b100000000000000001001 q
b100000000000000001001 4"
b100000100100000101010 B
b100000100100000101010 p
b100000100100000101010 G"
#105
b1100100 =
b1100100 g
b1100100 j
b100000110101000000100100 7
b100000110101000000100100 ("
b100000110101000000100100 /"
b11111111 u
#108
0"
#114
b1010 +
b1010 :"
b1010 M"
b11001 w
b1100100 ,
b1100100 C"
b1100100 J"
b1010 <"
b101000000100100 F"
b1100100 K"
b100100 :
b100100 z
b1010 3
b1010 9"
b11 .
b11 ""
b11 %"
b11 8"
b11 A"
b100 /
b100 !"
b100 $"
b100 ?"
b101000000100100 9
b101000000100100 +"
b100000000000000001001 2"
b100000000000000001001 '"
b1001 *
b1001 #"
b1001 &"
b1001 B"
b1001 O"
b1100100 <
b1100100 U
b1100100 Z
b1100100 l
b1100100 r
b1100100 H"
b0 0
b0 x
b0 7"
b10011111111 X"
b100000110101000000100100 8
b100000110101000000100100 1"
b100000000000000001001 D
b100000000000000001001 a
b100000000000000001001 E"
b10000000000000000100100 E
b10000000000000000100100 !
b100000000000000001001 d
1"
#115
b11111111 N
b11111111 h
b11111111 ,"
b11111111 -"
b11111111 ;
b11111111 W
b11111111 *"
b11111111 5"
b10000000000 >
b10000000000 R
b10000000000 f
b11111111 X
b10000000000 S
b1100100 ="
b11111111 1
b11111111 [
b11111111 @"
b10000000000 2
b10000000000 V
b10000000000 >"
#116
b100000000000000001010 5
b100000000000000001010 c
b100000000000000001010 m
b100000000000000001010 n
b10 Q
b10 i
b10 ~
b100000000000000001010 C
b100000000000000001010 `
b100000000000000001010 q
b100000000000000001010 4"
b100000101000000101101 B
b100000101000000101101 p
b100000101000000101101 G"
#117
b10001001001010000000000000010 7
b10001001001010000000000000010 ("
b10001001001010000000000000010 /"
b0 u
#118
b0 =
b0 g
b0 j
#120
0"
